{
  "posts": [
    {
      "id": 0,
      "type": "photo",
      "url": "http://www.webrun.com.br/wp-content/uploads/Depositphotos_13820869_m-2015.jpg",
      "createdAt": "1538504260437",
      "user": {
        "id": 0
      },
      "clapsCount": 16
    },
    {
      "id": 1,
      "type": "photo",
      "url": "http://www.webrun.com.br/wp-content/uploads/Depositphotos_13820869_m-2015.jpg",
      "createdAt": "1538504260439",
      "user": {
        "id": 0
      },
      "clapsCount": 15
    }
  ],
  "users": [
    {
      "id": 0,
      "username": "guschnwg",
      "name": "Gustavo Zanardini",
      "avatar": "https://encrypted-tbn0.gstatic.com/images?q=tbn:ANd9GcSi7GYLMeC4F81xbr9bkXQJSdlCgB1AlkNFE6hV6DKw4Ny62MIqnw"
    }
  ]
}